﻿คุณมาจากภูมิลําเนาใด,รายได้ต่อเดือน,อาชีพ,อายุ,เพศ,โครงสร้างครอบครัว,ความถี่ของการเดินทางท่องเที่ยวของท่านมีลักษณะอยู่ในข้อใด?,จุดมุ่งหมายในการมายังจังหวัดกาญจนบุรี,วิธีการเดินทางท่องเที่ยว?,การเดินทางท่องเที่ยวในจังหวัดกาญจนบุรี คุณมีความสนใจด้านใดมากที่สุด?,ท่านพักคางพักคืนในการท่องเที่ยวนี้หรือไม่,ในการเดินทางท่องเที่ยวจังหวัดกาญจนบุรีครั้งนี้ คุณมีค่าใช้จ่ายไปทั้งหมดเท่าไร?,คุณชอบกิจกรรมแบบไหนมากที่สุด,คุณชอบกิจกรรมแบบไหนมากที่สุด,คุณชอบกิจกรรมแบบไหนมากที่สุด,คุณชอบกิจกรรมแบบไหนมากที่สุด,คุณชอบกิจกรรมแบบไหนมากที่สุด,คุณชอบกิจกรรมแบบไหนมากที่สุด,class
ภาคกลาง,"5,001 - 10,000 บาท",พนักงานเอกชน,18 – 20 ปี,ชาย,โสด,ไม่เคย,เพื่อพักผ่อนหย่อนใจ,เดินทางคนเดียว,ทัศนียภาพภูมิทัศน์/ธรรมชาติอันสวยงาม,ไม่พักคางคืน,"500 - 1,000 บาท"
ภาคกลาง,"5,001 - 10,000 บาท",พนักงานเอกชน,18 – 20 ปี,ชาย,โสด,2 ครั้ง / เดือน,ทัศนะศึกษา/แสวงหาความรู้,เดินทางไปกับเพื่อน,ศิลปะวัฒนธรรม,ไม่พักคางคืน,"500 - 1,000 บาท","สำรวจถ้ำ , Hard","ล่องเรือ , Non-adventure","การขี่ม้า , Soft","เรือคายัค / ทะเล / ล่องแก่ง , Soft","ซาฟารี , Soft","เรียนรู้ภาษาใหม่ , Non-adventure",1
